...................
----------------------------------------------------------------------
Ran 19 tests in 2.920s

OK
Name             Stmts   Miss Branch BrPart  Cover   Missing
------------------------------------------------------------
Collatz.py          54      0     30      0   100%
TestCollatz.py      74      0      0      0   100%
------------------------------------------------------------
TOTAL              128      0     30      0   100%
