1 10 20
100 200 125
201 210 89
900 1000 174
5 96 116
512 640 137
971 668 179
161 351 144
164 187 125
17 911 179
547 7349 262
2885 8208 262
9331 2464 262
6121 2010 238
1851 13 182
9948 2961 262
8260 7176 252
7894 6164 262
6445 4216 262
7380 6287 257
4165 4118 189
4856 2883 238
8353 103 262
3475 3310 181
2456 268 183
9704 9158 260
2373 7372 262
5040 7693 262
2826 2142 209
8158 1176 262
1529 9686 262
993 8374 262
808 7710 262
5431 874 238
1922 9275 262
2215 8081 262
5099 8387 262
3183 5344 238
2688 1401 209
1577 371 182
196 4061 238
2366 7168 262
2463 742 209
7092 6957 195
6263 5874 262
6641 2658 262
3997 9223 262
2171 7214 262
9342 6646 260
5382 3200 238
449 5366 238
1398 808 182
7626 9457 260
4928 4176 215
3368 779 217
4409 9751 262
1421 97 182
3159 5720 238
924 8852 262
6761 6323 244
5330 6193 262
2588 1143 209
3248 3034 199
8069 8091 190
8420 4103 262
7426 8992 252
8374 1038 262
2650 3218 217
1472 6677 262
5518 6182 262
2876 3724 238
625 9258 262
6002 4754 236
4323 4076 202
9706 2909 262
9365 8109 260
7374 5757 262
8908 9918 260
2016 1836 175
6964 3760 262
1070 9566 262
801 3760 238
7920 4476 262
8151 2144 262
7169 389 262
979 1952 182
7270 974 262
3143 2342 217
1104 350 179
7919 2221 262
7797 1068 262
5989 1161 238
266569 265258 332
824686 800629 450
187378 216772 386
700636 741517 504
202200 194379 360
300115 265178 407
536646 569045 452
227309 191742 386
397287 421348 449
685061 638275 442
487612 515119 470
287307 256823 407
779816 739230 468
628402 625569 509
84274 107510 354
798384 796827 375
375431 363979 392
660157 671670 442
615323 586189 447
596635 546870 434
188918 141337 383
1 999999 525
40 806789 509
949000 999999 458
1 50001 324
1 50000 324
200000 250000 443
950000 999999 458
100000 900000 525
