1 10 20
100 200 125
201 210 89
900 1000 174
55 100 119
99 150 122
1 500 144
4 600 144
1 1000 179
2000 4000 238
605293 606510 341
956739 956006 352
826611 825983 313
756134 756776 362
478642 479101 338
815892 815933 269
719220 719135 274
929349 929040 339
948351 948681 326
20 20 8
9999 9999 92
1 9999 262
340 3000 217
3000 340 217
500 101 144
1 1 1
9999 9998 92
2 1596 182
99 9999 262
1 1999 182
340 30100 308
5 6 9
7 10 20
1 98746 351
3 4 8
8 1009 179
2 10000 262
1 100000 351
20 40 112
1 10 20
2 10 20
3 10 20
1234 54321 340
44 4444 238
10 10000 262
101 204 125
2066 2134 170
901 1023 174
553 1001 179
999 1500 182
12 50023 324
48 600 144
16 1000 179
2025 4030 238
612687 612358 297
810273 809602 344
431700 431055 312
281758 283365 358
984263 984008 352
884741 885879 370
724852 724070 362
869222 869573 388
21 20 8
999 9999 262
1 9998 262
3401 4004 238
30 340 144
50 101 119
9919 9998 180
26 1598 182
94 9999 262
13 1999 182
342 30100 308
31 61 113
84 101 119
12 98726 351
15 45 112
65 1089 179
27 10000 262
21 100000 351
23 40 112
14 109 119
26 101 119
39 104 119
123 54321 340
33 4444 238
9902 12345 268
436809 436182 325
630804 630542 310
975948 975688 334
945718 945752 202
747700 747747 243
652581 653137 336
21 89098 351
1 7 17
3 39 112
9 72 113
142 896 179
341 7896 262
326 613 144
