1 10 20
1 2 2
100 200 125
201 210 89
900 1000 174
25748 33583 308
10925 8550 260
26554 18312 282
41961 24530 324
19764 29618 308
27845 23453 308
8736 24714 282
26639 21755 308
46059 4523 324
15094 31281 308
47473 21424 324
5091 21879 279
13160 13565 276
13492 41855 324
39179 9762 324
15334 43000 324
13138 1594 268
30576 6635 308
2238 35557 311
44827 25241 324
49607 21583 324
19466 4658 279
21126 38028 324
6741 41498 324
8438 43462 324
2413 16434 276
6729 9351 260
25483 10765 282
23003 12949 279
9085 37085 324
36670 45268 314
36684 9003 324
23934 2993 282
20944 40484 324
44795 47071 314
10443 12658 268
42518 32949 324
30962 19627 308
28465 43966 324
33721 13727 308
29393 46099 324
41831 49942 314
18092 47957 324
13232 26815 308
22750 28713 308
6706 4240 262
16980 15125 266
14237 24046 282
22650 4897 279
35543 46228 324
986440 990733 396
999999 999999 259
123273 130045 344
108814 103592 354
109922 109031 310
109211 106527 323
100645 100769 266
103348 104131 279
104990 106001 341
101049 106655 354
109974 106720 323
101714 104636 310
421421 422908 356
897623 899676 370
84728 71171 351
70823 58200 335
600610 603051 403
145469 145298 264
131503 131132 269
125667 120565 336
121610 131878 344
141448 143040 375
387970 387744 299
386955 387268 255
3000 3200 199
5653 5854 218
90531 91433 315
243 533 144
909 1200 182
1200 1400 177
6000 9000 262
9001 10000 260
50000 55000 340
89998 100000 333
1 1 1
123 456 144
700 800 171
900 1000 174
1212 5454 238
1345 1500 172
90000 91000 315
880000 881000 326
45 90 116
541531 541900 346
678266 678999 380
898144 898999 370
