1 10 20
100 200 125
201 210 89
900 1000 174
999 1000 112
999 1001 143
1001 1000 143
1000 1000 112
1002 1000 143
5000 6000 236
10000 500 262
1 2498 209
689578 800000 504
86456 30689 351
5000 962 238
112125 333333 443
5795 16000 276
88745 98745 333
78545 95000 338
21282 5421 279
12550 98500 351
65000 48756 340
898965 584562 525
550000 987415 525
222000 224000 324
46800 11225 324
741 986 179
1235 6574 262
56646 97100 351
656551 787852 504
650000 989999 525
1 999999 525
999999 999999 259
999000 999999 396
998999 999999 396
999999 998998 396
5550 19125 279
358755 458201 449
258642 555000 470
55451 36540 340
689652 689652 93
32658 54321 340
7874 6 262
2 1 2
1 1 1
20 10 21
165 9745 262
36450 98745 351
50000 100000 351
500 600 137
224521 654153 509
78764 97863 338
65000 30000 340
36000 21256 324
8676 19500 279
26853 98874 351
365453 456754 449
87985 54652 351
1233 1200 164
69750 36000 340
21356 35874 324
130000 130000 70
5555 3333 238
145680 499999 449
454875 674655 509
68956 89866 351
70000 89999 351
157751 548745 470
12862 178466 383
23896 999000 525
784550 550055 509
2383 150000 375
1235 34548 311
267545 548796 470
48742 68445 340
21870 69994 340
12468 36500 324
120000 658791 509
59851 598510 470
268651 546456 470
15571 36869 324
98744 987440 525
59746 568736 470
589741 689746 509
37413 111111 354
1000 100000 351
687741 268846 509
157456 248946 443
5954 98875 351
487511 698000 509
38421 120 324
567846 998941 525
467685 878784 525
26520 26433 277
154756 366562 443
154000 784666 509
215751 165746 373
874000 268455 525
15496 8 276
745000 97000 509
48746 548974 470
450 45000 324
1756 67875 340
187661 254100 443
78465 115115 354
487630 257897 449
577845 745841 509
65984 77000 325
16586 68656 340
2651 6488 262
5687 7000 262
10000 9999 92
18656 18656 36
788451 478985 509
472000 551545 470
568000 787845 509
57487 78785 351
974500 984555 427
87000 59468 351
48752 65784 340
87400 58710 351
78 78 36
146 6810 262
57845 66450 335
9745 6541 260
9000 9845 260
988745 784666 525
87846 87895 165
98745 48797 351
746845 365412 509
788964 784500 406
9759 45000 324
745665 800000 468
47845 97745 351
111000 154451 375
18767 98799 351
594765 681545 509
15402 55754 340
15000 2 276
9785 97596 351
974561 987561 427
547412 650000 509
48745 65412 340
99987 35121 351
89874 97452 333
210000 65221 383
454545 545454 470
56541 67482 335
112441 365412 443
88 988 179
8745 420 262
331000 330000 322
330001 331000 322
9786 58600 340
984566 875612 507
78745 97845 338
13000 36451 324
125410 125410 88
77455 3000 351
578861 977451 525
687000 987455 525
236985 365000 441
7456 689745 509
17869 10 279
999999 1 525
69845 87874 351
412753 654122 509
870000 978451 507
36451 69700 340
978465 559886 525
55 98 119
87869 98656 333
745861 654100 504
68846 12000 340
